<svg xmlns="http://www.w3.org/2000/svg" viewBox="0 0 31.55 27.2">
  <defs>
    <style>.cls-1,.cls-2{fill:none;stroke:#000;stroke-width:1.44px;}.cls-1{stroke-linecap:round;stroke-linejoin:round;}.cls-2{stroke-miterlimit:22.93;}</style>
  </defs>
  <title>фото</title>
  <g id="Слой_2">
    <g id="Layer_1">
      <path class="cls-1" d="M.72 6.5h6.03L9.12.7h13.3L24.8 6.5h6.03v19.98H.73v-20z"></path>
      <path class="cls-2" d="M15.78 5.28a9.27 9.27 0 1 1-9.27 9.27 9.27 9.27 0 0 1 9.28-9.27zm0 2.86a6.4 6.4 0 1 1-6.4 6.4 6.4 6.4 0 0 1 6.4-6.4z"></path>
    </g>
  </g>
</svg>